Lab1/Part1/xor2/testsim.vcd
$date
  Wed Jun  7 17:42:50 2023
$end
$version
  PyMTL 3 (Mamba)
$end
$timescale
 10ps
$end

$scope module top $end
  $var reg 1 ! clk $end
  $var reg 1 " a_i $end
  $var reg 1 # c_o $end
  $var reg 1 $ b_i $end
  $var reg 1 % reset $end
$upscope $end
$enddefinitions $end

b0b0 !
b0b0 "
b0b0 #
b0b0 $
b0b0 %

#0
b0b1 !

b0b1 %

#50
b0b0 !
#100
b0b1 !


#150
b0b0 !
#200
b0b1 !


#250
b0b0 !
#300
b0b1 !

b0b0 %

#350
b0b0 !
#400
b0b1 !

b0b1 #
b0b1 $

#450
b0b0 !
#500
b0b1 !

b0b1 "
b0b0 $

#550
b0b0 !
#600
b0b1 !

b0b0 #
b0b1 $

#650
b0b0 !
#700
b0b1 !

