Lab1/Part2/paramadder/testsim.vcd
$date
  Sun Jun  4 22:03:08 2023
$end
$version
  PyMTL 3 (Mamba)
$end
$timescale
 10ps
$end

$scope module top $end
  $var reg 8 ! b_i $end
  $var reg 8 " a_i $end
  $var reg 1 # clk $end
  $var reg 8 $ sum_o $end
  $var reg 1 % reset $end
$upscope $end
$enddefinitions $end

b0b00000000 !
b0b00000000 "
b0b0 #
b0b00000000 $
b0b0 %

#0
b0b1 #

b0b00000000 $
b0b1 %

#50
b0b0 #
#100
b0b1 #


#150
b0b0 #
#200
b0b1 #


#250
b0b0 #b0b00010001 !
b0b01001001 !
b0b00010001 "
b0b01011010 $
b0b0 %

#350
b0b0 #b0b00100110 !
b0b01011010 !
b0b00100110 "
b0b10000000 $

#450
b0b0 #b0b01000000 !
b0b00001001 !
b0b01000000 "
b0b01001001 $

#550
b0b0 #
#600
b0b1 #

