Lab2/Part1/hex7seg/testsim.vcd
$date
  Wed Jun  7 01:23:36 2023
$end
$version
  PyMTL 3 (Mamba)
$end
$timescale
 10ps
$end

$scope module top $end
  $var reg 1 ! clk $end
  $var reg 1 " reset $end
  $var reg 4 # in_i $end
  $var reg 8 $ out_o $end
$upscope $end
$enddefinitions $end

b0b0 !
b0b0 "
b0b0000 #
b0b00000000 $

#0
b0b1 !

b0b1 "
b0b0000 #
b0b11000000 $

#50
b0b0 !
#100
b0b1 !


#150
b0b0 !
#200
b0b1 !


#250
b0b0 !
#30b0b0 $

#3b0b0 "

#350
b0b0 !
#40b0b0001 !
b0b0001 #
b0b11111001 $

#450
b0b0 !
#50b0b0010 !
b0b0010 #
b0b10100100 $

#550
b0b0 !
#60b0b0011 !
b0b0011 #
b0b10110000 $

#650
b0b0 !
#70b0b0100 !
b0b0100 #
b0b10011001 $

#750
b0b0 !
#80b0b0101 !
b0b0101 #
b0b10010010 $

#850
b0b0 !
#90b0b0110 !
b0b0110 #
b0b10000010 $

#950
b0b0 !
#100b0b0111 !
b0b0111 #
b0b11111000 $

#1050
b0b0 !
#110b0b1000 !
b0b1000 #
b0b10000000 $

#1150
b0b0 !
#120b0b1001 !
b0b1001 #
b0b10010000 $

#1250
b0b0 !
#130b0b1010 !
b0b1010 #
b0b10001000 $

#1350
b0b0 !
#140b0b1011 !
b0b1011 #
b0b10000011 $

#1450
b0b0 !
#150b0b1100 !
b0b1100 #
b0b11000110 $

#1550
b0b0 !
#160b0b1101 !
b0b1101 #
b0b10100001 $

#1650
b0b0 !
#170b0b1110 !
b0b1110 #
b0b10000110 $

#1750
b0b0 !
#180b0b1111 !
b0b1111 #
b0b10001110 $

#1850
b0b0 !
#1900
b0b1 !

